Assignment03
…
##                Df   Sum Sq Mean Sq F value Pr(>F)  
## BLD_label       9     9991  1110.1   1.865 0.0522 .
## Residuals   22992 13682203   595.1                 
## ---
## Signif. codes:  0 '***' 0.001 '**' 0.01 '*' 0.05 '.' 0.1 ' ' 1

Since this relationship is statistically significant, Ill run a Tukeys HSD test to see the magnitude of differences among the difference category, followed by a boxplot to visualize the differences.

differences <- TukeyHSD(anova)

as_tibble(cbind(pair = row.names(differences$BLD_label),
                differences$BLD_label))

## # A tibble: 45 x 5
##    pair                       diff          lwr         upr         `p adj`     
##    <chr>                      <chr>         <chr>       <chr>       <chr>       
##  1 2 Apartments-10-19 Apartm -3.606123568 -9.9392420 2.72699490 0.734462882
##  2 20-49 Apartments-10-19 Ap -0.905246775 -8.7739348 6.96344126 0.999998174
##  3 3-4 Apartments-10-19 Apar -1.881613584 -8.4289328 4.66570565 0.996226713
##  4 5-9 Apartments-10-19 Apar -3.598946684 -11.318890 4.12099708 0.902227135
##  5 50 or more apartments-10- -0.794362494 -8.5331802 6.94445522 0.999999329
##  6 Boat, RV, van, etc.-10-19 6.4251497006 -70.989256 83.8395557 0.999999897
##  7 Mobile home or trailer-10 -5.965094201 -15.136028 3.20584023 0.557554866
##  8 One-family house attached -0.986468556 -7.3595677 5.38663062 0.999976023
##  9 One-family house detached -1.541271617 -7.5406568 4.45811362 0.998413923
## 10 20-49 Apartments-2 Apartm 2.7008767930 -2.8380327 8.23978633 0.874888249
## #  with 35 more rows
…
summary(anova)

##                Df   Sum Sq Mean Sq F value Pr(>F)    
## JWTR_label     10  1341347  134135   249.7 <2e-16 ***
## Residuals   22991 12350846     537                   
## ---
## Signif. codes:  0 '***' 0.001 '**' 0.01 '*' 0.05 '.' 0.1 ' ' 1

differences <- TukeyHSD(anova)

as_tibble(cbind(pair = row.names(differences$JWTR_label),
                differences$JWTR_label))

## # A tibble: 55 x 5
##    pair                           diff        lwr        upr        `p adj`     
##    <chr>                          <chr>       <chr>      <chr>      <chr>       
##  1 Bus or trolley bus-Bicycle     20.4307839 13.174698 27.686869 0           
##  2 Car, truck, or van-Bicycle     5.67166043 -0.462734 11.806055 0.100499088
##  3 Ferryboat-Bicycle              37.2287801 23.048641 51.408918 0           
##  4 Motorcycle-Bicycle             2.19402074 -21.11682 25.504866 0.999999935
##  5 Other method-Bicycle           15.6807169 7.2367869 24.124647 0           
##  6 Railroad-Bicycle               44.7258389 37.848451 51.603226 0           
##  7 Streetcar or trolley car (car 17.7989158 1.9417075 33.656124 0.013532470
##  8 Subway or elevated-Bicycle     25.8556776 19.159397 32.551958 0           
##  9 Taxicab-Bicycle                -0.4574944 -15.38751 14.472521 0.999999999
## 10 Walked-Bicycle                 -9.0577710 -16.05112 -2.064416 0.001535002
## #  with 45 more rows
…
